BM25
75534979 0 146 1 24.296259328595717 run
75534979 0 9400 2 19.06675443655453 run
75534979 0 9381 3 19.06675443655453 run
75534979 0 9348 4 19.06675443655453 run
75534979 0 9340 5 19.06675443655453 run
75534979 0 18013 6 18.798152253131345 run
75534979 0 172 7 18.798152253131345 run
75534979 0 168 8 18.798152253131345 run
75534979 0 137 9 18.798152253131345 run
75534979 0 7999 10 15.5146212058598 run
5288.810253143311

COSINE
C:\Users\prath\AppData\Local\Programs\Python\Python37-32\python.exe C:/Users/prath/cs267hw2/index_adt.py corpus.txt 10 "_OR _OR noah david elijah"
DocID	Score

198	0.49422232877285566
146	0.46944160662082024
213	0.43152984123664706
164	0.42420305839082856
168	0.4193073147565148
9340	0.41650243661215264
9348	0.41640654624700857
137	0.39830096418861377
145	0.3965813080909058
9381	0.3685214539917268
253322.89457321167

Process finished with exit code 0
